…
    ## New names:
    ## * `` -> ...1
    ## * `` -> ...2
    ## * `` -> ...3
    ## * `` -> ...4
    ## * `` -> ...5
    ## * … and 3 more problems

    ## $`Data Dictionary`
    ## # A tibble: 53 x 8
    ##    ...1   ...2     ...3          ...4  ...5  ...6  ...7   ...8                  
    ##    <chr>  <chr>    <chr>         <chr> <chr> <chr> <chr>  <chr>                 
    ##  1 YBL I… <NA>     Year of buil… <NA>  <NA>  <NA>  UNITS  Number of occupied ho…
    ##  2 0      2010+    <NA>          <NA>  <NA>  <NA>  HINCP  Average annual househ…
    ##  3 1      2000-09  <NA>          <NA>  <NA>  <NA>  ELEP   Original American Com…
    ##  4 2      1980-99  <NA>          <NA>  <NA>  <NA>  ELEP … Calibrated American C…
    ##  5 3      1960-79  <NA>          <NA>  <NA>  <NA>  GASP   Original American Com…
    ##  6 4      1940-59  <NA>          <NA>  <NA>  <NA>  GASP … Calibrated American C…
    ##  7 5      BEFORE … <NA>          <NA>  <NA>  <NA>  GASP-… Calibrated American C…
    ##  8 <NA>   <NA>     <NA>          <NA>  <NA>  <NA>  FULP   Original American Com…
    ##  9 BLD I… <NA>     Number of un… <NA>  <NA>  <NA>  COUNT  Average number of ACS…
    ## 10 0      1 UNIT … <NA>          <NA>  <NA>  <NA>  <NA>   <NA>                  
    ## # … with 43 more rows
…
